000075400000000008080190000300001060000000034000068170204000603900000020530200000
300000000050703008000028070700000043000000000003904105400300800100040000968000200
302609005500730000000000900000940000000000109000057060008500006000000003019082040
530000008007000030200006901000500200090370004000981000300040560000090000000007080
008310900095000160000000005000400000000080049006072000000001030000240607001008200
000400970000051600042000010030000000070508064000070000700030000300090000005864009
060500000720000000000000320000050637000004500000230180180009000603070000004006003
274000030000000005000600041900306000100280000006054000000000002007000583000095700
570000069000003800090000000801600000000030600702000050000060501000702000006091032
005200000400300700600000010800020100040800500000095000083040070090006080500902000
400500600200000000000020000002004380000030000790000504000060490070093810500100030
000790000001000000040050080000800027009003000000020403000040600004907100600501790
060010000403700008520640000002000000009438005000006300004301200000200000005070000
130400000705300000600020000000000027000900400000000085860500003059103000002004060
020001048400000037071006020500000000000010802000809500090030400000040000000902060
000000020006410035180020000008130406020000300600000000790005000004000008001300002
040000200000007090000006010870020004901000028060030100006800041000070050005900000
000030009048900000200470100125000080000080710000500000000090054061000003000050070
000000060306000000000000805000605071005000300100870042900200014201080000000703000
900000586008070004401000300002010900804005100000007000003008702000000000600040009
000032970070045010000800000001060000000000000029000840500620007004000009100009036
950003008800002000031000000060350090010007050000060010008000307000206009007000004
000000000300027801100083000005001000001370060007004002200060070004000000900030650
030207001000180670001030050000500900190004008000600020300700000000005080000020006
600000004020507000000000031010900060000350109800000002240108000067090000003000006
600095000000061802000000100500016000004000200002008036000002450040050000003400070
201070800460000090080010040000050030030980051000006000004097000500000000090020700
090000030100000800000312700050640007000730240080500000026000010000004300000050060
000560300100000800024000000009000000080720006610800000007206000400080037000104090
090035406001000000007000089070940050100200000006800700008004030000600040605000000
050060040006247091000190000000600900200000084000300005031000008000000006004000250
000001050004000280000820007000006000000287000070000090500070061900060020002043500
003140970509000000080002001000900063000003700900500400070000340200008000000057000
000084970600030000000600200008050700030720850000000000080047103000008400200100000
000400018000016200000005000000090305004007060006001004080060029059000600010000700
076000002050100043000060010640010000000050001002073000807000030069030007000000400
000806009069000400000000700700900100030700002008040005000002031000104800070050600
000098000070105020030040009007502000000000600012060004000080900700006431040000000
020000008000000004007000352000050093608090000005002410700300000003100600000608005
001000700040609000002408300000005070003000104000900263004090000000502008080000020
500040081900630000000000006000260004000071090000900800008004060093080200100000700
008040005326109000051003000000070000000205907000008060005030000003004000010000380
300600500200000003007340001592000017080070000001900460006009000000000802000800000
209030700405060000000700906000006007001800020300000400050000002004020009702000300
140000003080004000000090000500040308000007569001000040090060800305000007060051000
280760000000001000000008060000104000050000000760023040609007420000080003000090507
000300000090008200000960750035000000000004000041000890204005009050100000700046001
000007080800056400060010007003500600700000000900000501400008010000005063002070009
090020007060007009000090410200000360000004500040700000900840230000005040300100000
010000400072000093409000760006208900800006570000009000050000001004030000003005000
503060800090700501000000026200007000080000705060489100000104000100000003009000000
700001800000000005003002010200500460000704000008000502001009000050370000480010300
074000506096802000000000000000590080000307000700000600080600400100420763000000900
000010806040002000000050000830070509900003002000006087500000600301900205000080000
000970000002000051000000000090000500001040060306590418000000000020010097050300204
000380000060000009007500600000000005000000087500071060200000040043790050001620030
000720000000010074067009001000100009003500100000036000090004607608000000200803000
000005024900000100040000070480900010020000006006800000370060500000100302860000007
264730000000900000800000300002000050400000620600001008000050034100020700000008509
000069000000014720070003040000000081800001070002000300906300000500000400700500019
000600057037800092060000000000007000000005008008401300002730109180000000403000000
000000003006000720003608000002001400001050090300090010000000080090100600050082940
004500000000000000000130049010020000000010905600000730130006570900300100007400008
001000026700001930000020017030005001014000000000706005400080070000530000090200000
000000000100380640000460900050016000000000804709000200807900060200500009900000003
400620035005000001700000408050001000302040000007000284003065000010030000000000900
800700001000030204004126700000010008006082000190300000003000060900405000000000100
005004002080005006000060000000000700560130080029000610000700000000506407002009008
009003050000000300003704601000109000000020870067000009090206400080400200000080000
000003040040800000206004078870000010503709600000000020700000000050000203010065000
683050091000030200400100000105067000000000003007000006700090400000200000506010002
000001280008009001000000350620000000980005670000040000090400000503120000000700063
000050087000782000300100000005003020604090003100000000007000450000006200000830071
000000000007009651000310890000500080009002730406000000028600000000000005010003420
006903200003000004008040001090001820060390010010200040000000000000002000005600908
000000000000200480031089000700098034006107500200004006000000300620000005000001002
000006005090000000000030708308072060060050000000080000000304000050020084002095301
050000193007400000800090400060000205700000610080005000000040030000021900070809000
001000000900607000004009610007008200090004030000000000030900000070040028508031040
013004000000000090020050070509800102300000000060300800052000019000000605007006200
060000009570010620000200030000301005000509000004070000201050060000000300098000054
080209005006100320070080060020010000000006030501800040090040700002000000000690000
030002000000604007092803000000250014000000039000007280050001000080000045007000600
000000004000527000150009000400008000000090007000300085002000803030085070710060090
000041800300500600000008020000000003005600000040852070000100900900000001018039200
306000000080014007040000506000925800020700000000000010600500030000490000005000294
000109003000000020600000000380000902006070050079005800000004017000520008020001060
000000200000001748090328005030000000600145080000080010009000000002400000100250090
000007100000030000060008020004090000100000503200400780000073400002159307070000000
000014000005800000700000006400020300090070102060050008014000037000000640000109800
030090000000010786106000000080900032005000100040000950000004200000070060300080014
074000005000070010009504300030006400040000200106002809060000020000203500000001000
000073200100045000780900060060008000000000090000000012009104630804000000010002050
000927000000003050703061000310006004800000000400000298070600000000102000002000403
003000004040060000000007160050080001700000243001000806002090000000250400030008700
005800000030002010000076430050008290402000000397000000009103080000509006000000000
000068010000201049003000008000005204002080000000340060100000000000000905090576001
400016700030900000100080000000500310000709000002000000000300005704600080050092140
000000040000058002000600010075096000004000900013702000000401070037000080200080090
590000000017000489000000607000000000003746000000900000008052010000087500005100360
